%YAML 1.1
%TAG !u! tag:unity3d.com,2011:
--- !u!1001 &4713358302209540953
PrefabInstance:
  m_ObjectHideFlags: 0
  serializedVersion: 2
  m_Modification:
    serializedVersion: 3
    m_TransformParent: {fileID: 0}
    m_Modifications:
    - target: {fileID: 2147785696643174683, guid: cc1c1c9595bf2144ea2fe2cbfcb4e23a,
        type: 3}
      propertyPath: m_LocalPosition.x
      value: 0
      objectReference: {fileID: 0}
    - target: {fileID: 2147785696643174683, guid: cc1c1c9595bf2144ea2fe2cbfcb4e23a,
        type: 3}
      propertyPath: m_LocalPosition.y
      value: 0
      objectReference: {fileID: 0}
    - target: {fileID: 2147785696643174683, guid: cc1c1c9595bf2144ea2fe2cbfcb4e23a,
        type: 3}
      propertyPath: m_LocalPosition.z
      value: 0
      objectReference: {fileID: 0}
    - target: {fileID: 2147785696643174683, guid: cc1c1c9595bf2144ea2fe2cbfcb4e23a,
        type: 3}
      propertyPath: m_LocalRotation.w
      value: 1
      objectReference: {fileID: 0}
    - target: {fileID: 2147785696643174683, guid: cc1c1c9595bf2144ea2fe2cbfcb4e23a,
        type: 3}
      propertyPath: m_LocalRotation.x
      value: 0
      objectReference: {fileID: 0}
    - target: {fileID: 2147785696643174683, guid: cc1c1c9595bf2144ea2fe2cbfcb4e23a,
        type: 3}
      propertyPath: m_LocalRotation.y
      value: 0
      objectReference: {fileID: 0}
    - target: {fileID: 2147785696643174683, guid: cc1c1c9595bf2144ea2fe2cbfcb4e23a,
        type: 3}
      propertyPath: m_LocalRotation.z
      value: 0
      objectReference: {fileID: 0}
    - target: {fileID: 2147785696643174683, guid: cc1c1c9595bf2144ea2fe2cbfcb4e23a,
        type: 3}
      propertyPath: m_LocalEulerAnglesHint.x
      value: 0
      objectReference: {fileID: 0}
    - target: {fileID: 2147785696643174683, guid: cc1c1c9595bf2144ea2fe2cbfcb4e23a,
        type: 3}
      propertyPath: m_LocalEulerAnglesHint.y
      value: 0
      objectReference: {fileID: 0}
    - target: {fileID: 2147785696643174683, guid: cc1c1c9595bf2144ea2fe2cbfcb4e23a,
        type: 3}
      propertyPath: m_LocalEulerAnglesHint.z
      value: 0
      objectReference: {fileID: 0}
    - target: {fileID: 3805057203398007165, guid: cc1c1c9595bf2144ea2fe2cbfcb4e23a,
        type: 3}
      propertyPath: m_Color.g
      value: 0
      objectReference: {fileID: 0}
    - target: {fileID: 3805057203398007165, guid: cc1c1c9595bf2144ea2fe2cbfcb4e23a,
        type: 3}
      propertyPath: m_Color.r
      value: 0
      objectReference: {fileID: 0}
    - target: {fileID: 7899010109385256961, guid: cc1c1c9595bf2144ea2fe2cbfcb4e23a,
        type: 3}
      propertyPath: m_Name
      value: Box Variant
      objectReference: {fileID: 0}
    - target: {fileID: 7899010109385256961, guid: cc1c1c9595bf2144ea2fe2cbfcb4e23a,
        type: 3}
      propertyPath: m_Layer
      value: 10
      objectReference: {fileID: 0}
    m_RemovedComponents: []
    m_RemovedGameObjects: []
    m_AddedGameObjects: []
    m_AddedComponents: []
  m_SourcePrefab: {fileID: 100100000, guid: cc1c1c9595bf2144ea2fe2cbfcb4e23a, type: 3}
