%YAML 1.1
%TAG !u! tag:unity3d.com,2011:
--- !u!1001 &3661093047202901467
PrefabInstance:
  m_ObjectHideFlags: 0
  serializedVersion: 2
  m_Modification:
    serializedVersion: 3
    m_TransformParent: {fileID: 0}
    m_Modifications:
    - target: {fileID: 531343448513986133, guid: 224d57681ae55d742bbb6dffa7d18acd,
        type: 3}
      propertyPath: m_LocalPosition.x
      value: 0
      objectReference: {fileID: 0}
    - target: {fileID: 531343448513986133, guid: 224d57681ae55d742bbb6dffa7d18acd,
        type: 3}
      propertyPath: m_LocalPosition.y
      value: 0
      objectReference: {fileID: 0}
    - target: {fileID: 531343448513986133, guid: 224d57681ae55d742bbb6dffa7d18acd,
        type: 3}
      propertyPath: m_LocalPosition.z
      value: 0
      objectReference: {fileID: 0}
    - target: {fileID: 531343448513986133, guid: 224d57681ae55d742bbb6dffa7d18acd,
        type: 3}
      propertyPath: m_LocalRotation.w
      value: 1
      objectReference: {fileID: 0}
    - target: {fileID: 531343448513986133, guid: 224d57681ae55d742bbb6dffa7d18acd,
        type: 3}
      propertyPath: m_LocalRotation.x
      value: 0
      objectReference: {fileID: 0}
    - target: {fileID: 531343448513986133, guid: 224d57681ae55d742bbb6dffa7d18acd,
        type: 3}
      propertyPath: m_LocalRotation.y
      value: 0
      objectReference: {fileID: 0}
    - target: {fileID: 531343448513986133, guid: 224d57681ae55d742bbb6dffa7d18acd,
        type: 3}
      propertyPath: m_LocalRotation.z
      value: 0
      objectReference: {fileID: 0}
    - target: {fileID: 531343448513986133, guid: 224d57681ae55d742bbb6dffa7d18acd,
        type: 3}
      propertyPath: m_LocalEulerAnglesHint.x
      value: 0
      objectReference: {fileID: 0}
    - target: {fileID: 531343448513986133, guid: 224d57681ae55d742bbb6dffa7d18acd,
        type: 3}
      propertyPath: m_LocalEulerAnglesHint.y
      value: 0
      objectReference: {fileID: 0}
    - target: {fileID: 531343448513986133, guid: 224d57681ae55d742bbb6dffa7d18acd,
        type: 3}
      propertyPath: m_LocalEulerAnglesHint.z
      value: 0
      objectReference: {fileID: 0}
    - target: {fileID: 1528085814547439035, guid: 224d57681ae55d742bbb6dffa7d18acd,
        type: 3}
      propertyPath: m_Color.g
      value: 0
      objectReference: {fileID: 0}
    - target: {fileID: 1528085814547439035, guid: 224d57681ae55d742bbb6dffa7d18acd,
        type: 3}
      propertyPath: m_Color.r
      value: 0
      objectReference: {fileID: 0}
    - target: {fileID: 7227700537279220978, guid: 224d57681ae55d742bbb6dffa7d18acd,
        type: 3}
      propertyPath: m_Name
      value: Key B
      objectReference: {fileID: 0}
    - target: {fileID: 7227700537279220978, guid: 224d57681ae55d742bbb6dffa7d18acd,
        type: 3}
      propertyPath: m_Layer
      value: 10
      objectReference: {fileID: 0}
    m_RemovedComponents: []
    m_RemovedGameObjects: []
    m_AddedGameObjects: []
    m_AddedComponents:
    - targetCorrespondingSourceObject: {fileID: 7227700537279220978, guid: 224d57681ae55d742bbb6dffa7d18acd,
        type: 3}
      insertIndex: -1
      addedObject: {fileID: 3291194499276739350}
  m_SourcePrefab: {fileID: 100100000, guid: 224d57681ae55d742bbb6dffa7d18acd, type: 3}
--- !u!1 &6233865765251178793 stripped
GameObject:
  m_CorrespondingSourceObject: {fileID: 7227700537279220978, guid: 224d57681ae55d742bbb6dffa7d18acd,
    type: 3}
  m_PrefabInstance: {fileID: 3661093047202901467}
  m_PrefabAsset: {fileID: 0}
--- !u!114 &3291194499276739350
MonoBehaviour:
  m_ObjectHideFlags: 0
  m_CorrespondingSourceObject: {fileID: 0}
  m_PrefabInstance: {fileID: 0}
  m_PrefabAsset: {fileID: 0}
  m_GameObject: {fileID: 6233865765251178793}
  m_Enabled: 1
  m_EditorHideFlags: 0
  m_Script: {fileID: 11500000, guid: d1dc1123f9ef68d44a02a987b2e0a8fd, type: 3}
  m_Name: 
  m_EditorClassIdentifier: 
  reflectionMat: {fileID: 2100000, guid: 9a5cb674fbd13fb439700bdd08f45e30, type: 2}
  sprMat: {fileID: 2100000, guid: 79d920c0782b1204ea7fe06b1e4b991e, type: 2}
  sprite: {fileID: 0}
  originalColor: {r: 0, g: 0, b: 0, a: 0}
  reflectionColor: {r: 0, g: 0, b: 0, a: 0}
